<?xml version="1.0" encoding="UTF-8" standalone="no"?>
<!-- Created with Inkscape (http://www.inkscape.org/) -->
<svg id="svg8785" xmlns:rdf="http://www.w3.org/1999/02/22-rdf-syntax-ns#" xmlns="http://www.w3.org/2000/svg" height="16px" width="16px" version="1.1" xmlns:cc="http://creativecommons.org/ns#" xmlns:dc="http://purl.org/dc/elements/1.1/">
<metadata id="metadata8790">
<rdf:RDF>
<cc:Work rdf:about="">
<dc:format>image/svg+xml</dc:format>
<dc:type rdf:resource="http://purl.org/dc/dcmitype/StillImage"/>
<dc:title/>
</cc:Work>
</rdf:RDF>
</metadata>
<g id="layer1">
<path id="path402" style="fill-rule:nonzero;fill:#ffffff;" d="m11.417,11.21-6.791,0,0-0.874,6.791,0,0,0.874zm-1.851,1.613-4.939,0,0-0.874,4.939,0,0,0.874zm4.893-7.434c-0.259,0-0.469-0.21-0.469-0.47,0-0.259,0.21-0.47,0.469-0.47,0.26,0,0.47,0.211,0.47,0.47,0,0.26-0.21,0.47-0.47,0.47m-2.09-1.972-8.738,0,0-1.864,8.738,0,0,1.864zm0,11.03-8.738,0,0-5.01,8.738,0,0,5.01zm1.553-11.03,0-3.41700002-11.844,0,0,3.41700002-2.078,0,0,7.884,2.078,0,0,4.699,11.844,0,0-4.699,2.078,0,0-7.884-2.078,0z"/>
</g>
</svg>
