<?xml version="1.0" encoding="UTF-8" standalone="no"?>
<!-- Created with Inkscape (http://www.inkscape.org/) -->
<svg id="svg11854" xmlns:rdf="http://www.w3.org/1999/02/22-rdf-syntax-ns#" xmlns="http://www.w3.org/2000/svg" height="48px" width="48px" version="1.1" xmlns:cc="http://creativecommons.org/ns#" xmlns:dc="http://purl.org/dc/elements/1.1/">
<metadata id="metadata11859">
<rdf:RDF>
<cc:Work rdf:about="">
<dc:format>image/svg+xml</dc:format>
<dc:type rdf:resource="http://purl.org/dc/dcmitype/StillImage"/>
<dc:title/>
</cc:Work>
</rdf:RDF>
</metadata>
<g id="layer1">
<path id="path2342" d="m42.4,31.51125c0,0.44125-0.35875,0.8-0.8,0.8h-35.2c-0.44125,0-0.8-0.35875-0.8-0.8v-21.24375c0-0.44125,0.35875-0.8000005,0.8-0.8000005h35.2c0.44125,0,0.8,0.3587505,0.8,0.8000005v21.24375zm-15.58875,7.88875h-5.6225l1.0125-5.48875h3.5975l1.0125,5.48875zm14.78875-31.5325005h-35.2c-1.32375,0-2.4,1.07625-2.4,2.4000005v21.24375c0,1.32375,1.07625,2.4,2.4,2.4h14.175l-1.01375,5.48875h-4.1275c-0.4425,0-0.8,0.35875-0.8,0.8,0,0.4425,0.3575,0.8,0.8,0.8h17.1325c0.4425,0,0.8-0.3575,0.8-0.8,0-0.44125-0.3575-0.8-0.8-0.8h-4.12875l-1.0125-5.48875h14.175c1.32375,0,2.4-1.07625,2.4-2.4v-21.24375c0-1.3237505-1.07625-2.4000005-2.4-2.4000005m-9.36088,18.6325005c0,0.44125-0.35875,0.8-0.8,0.8h-14.87875c-0.44125,0-0.8-0.35875-0.8-0.8v-11.58125c0-0.44125,0.35875-0.8,0.8-0.8h4.4825v1.71875c0,1.32375,1.0775,2.4,2.4,2.4h1.55625c1.32375,0,2.4-1.07625,2.4-2.4v-1.71875h4.04c0.44125,0,0.8,0.35875,0.8,0.8v11.58125zm-9.59625-12.38125,3.15625,0,0,1.71875c0,0.44125-0.35875,0.8-0.8,0.8h-1.55625c-0.44125,0-0.8-0.35875-0.8-0.8v-1.71875zm11.19625,0.8c0-1.32375-1.07625-2.4-2.4-2.4h-14.87875c-1.3225,0-2.4,1.07625-2.4,2.4v11.58125c0,1.32375,1.0775,2.4,2.4,2.4h14.87875c1.32375,0,2.4-1.07625,2.4-2.4v-11.58125zm-3.33512,7.33463-2.45625-2.4575c-0.18125-0.18-0.475-0.18-0.65625,0l-2.45625,2.4575c-0.18,0.18-0.18,0.475,0,0.655l0.3275,0.3275c0.18,0.18,0.475,0.18,0.655,0l1.00125-1.00125v2.665c0,0.4425,0.35875,0.8,0.8,0.8,0.4425,0,0.8-0.3575,0.8-0.8v-2.665l1.0025,1.00125c0.18,0.18,0.475,0.18,0.655,0l0.3275-0.3275c0.18-0.18,0.18-0.475,0-0.655m-7.43913,0-2.45625-2.4575c-0.18125-0.18-0.475-0.18-0.65625,0l-2.45625,2.4575c-0.18,0.18-0.18,0.475,0,0.655l0.3275,0.3275c0.18,0.18,0.475,0.18,0.655,0l1.00125-1.00125v2.665c0,0.4425,0.35875,0.8,0.8,0.8,0.4425,0,0.8-0.3575,0.8-0.8v-2.665l1.0025,1.00125c0.18,0.18,0.475,0.18,0.655,0l0.3275-0.3275c0.18-0.18,0.18-0.475,0-0.655" style="enable-background:accumulate;fill-rule:nonzero;color:#000000;fill:#ffffff;"/>
</g>
</svg>
