<?xml version="1.0" encoding="utf-8"?>
<!-- Generator: Adobe Illustrator 19.1.0, SVG Export Plug-In . SVG Version: 6.00 Build 0)  -->
<svg version="1.2" baseProfile="tiny" id="Layer_1" xmlns="http://www.w3.org/2000/svg" xmlns:xlink="http://www.w3.org/1999/xlink"
	 x="0px" y="0px" viewBox="0 0 32 32" xml:space="preserve">
<g>
	<path fill="#FFFFFF" d="M22.7,19.2c0,0.2-0.1,0.3-0.3,0.3h-4.1c-0.2,0-0.3-0.1-0.3-0.3v-2.5c0-0.2,0.1-0.3,0.3-0.3h4.1
		c0.2,0,0.3,0.1,0.3,0.3V19.2L22.7,19.2z M21.6,22.4c0,0.2-0.1,0.3-0.3,0.3H9.6c-0.2,0-0.3-0.1-0.3-0.3v-8.3c0-0.2,0.1-0.3,0.3-0.3
		h11.7c0.2,0,0.3,0.1,0.3,0.3v1.7h-3.4c-0.5,0-0.9,0.4-0.9,0.9v2.5c0,0.5,0.4,0.9,0.9,0.9h3.4V22.4L21.6,22.4z M22.4,15.8h-0.2v-1.7
		c0-0.5-0.4-0.9-0.9-0.9H9.6c-0.5,0-0.9,0.4-0.9,0.9v8.3c0,0.5,0.4,0.9,0.9,0.9h11.7c0.5,0,0.9-0.4,0.9-0.9v-2.3h0.2
		c0.5,0,0.9-0.4,0.9-0.9v-2.5C23.3,16.2,22.9,15.8,22.4,15.8L22.4,15.8z"/>
	<path fill="#FFFFFF" d="M19.6,17.7c-0.2,0-0.3,0.1-0.3,0.3c0,0.2,0.1,0.3,0.3,0.3s0.3-0.1,0.3-0.3C19.9,17.8,19.8,17.7,19.6,17.7
		L19.6,17.7z M19.6,18.8c-0.5,0-0.9-0.4-0.9-0.9c0-0.5,0.4-0.9,0.9-0.9s0.9,0.4,0.9,0.9C20.5,18.4,20.1,18.8,19.6,18.8L19.6,18.8z"
		/>
	<path fill="#FFFFFF" d="M17.2,12.6l1-0.6c0.1-0.1,0.2-0.3,0.1-0.4c-0.1-0.1-0.3-0.2-0.4-0.1L16,12.6H17.2L17.2,12.6z"/>
	<path fill="#FFFFFF" d="M17.1,9.7l0.5-0.3c0.1-0.1,0.3,0,0.4,0.1l0.3,0.5L17.1,9.7L17.1,9.7z M18.6,9.2c-0.2-0.4-0.8-0.6-1.2-0.3
		l-6.6,3.8H12l4.4-2.6l2.4,0.6l1.1,1.9h0.6c0,0,0,0,0,0L18.6,9.2L18.6,9.2z"/>
</g>
</svg>
