<?xml version="1.0" encoding="utf-8"?>
<!-- Generator: Adobe Illustrator 19.1.0, SVG Export Plug-In . SVG Version: 6.00 Build 0)  -->
<svg version="1.2" baseProfile="tiny" id="Layer_1" xmlns="http://www.w3.org/2000/svg" xmlns:xlink="http://www.w3.org/1999/xlink"
	 x="0px" y="0px" viewBox="0 0 32 32" xml:space="preserve">
<g>
	<g>
		<g>
			<path fill="#2E70B8" d="M15.6,15.1l-1-1c-0.1-0.1-0.2-0.1-0.3,0l-1,1c-0.1,0.1-0.1,0.2,0,0.3l0.1,0.1c0.1,0.1,0.2,0.1,0.3,0
				l0.4-0.4v1c0,0.2,0.1,0.3,0.3,0.3c0.2,0,0.3-0.1,0.3-0.3v-1l0.4,0.4c0.1,0.1,0.2,0.1,0.3,0l0.1-0.1
				C15.7,15.3,15.7,15.2,15.6,15.1z"/>
			<path fill="#2E70B8" d="M18.5,15.1l-1-1c-0.1-0.1-0.2-0.1-0.3,0l-1,1c-0.1,0.1-0.1,0.2,0,0.3l0.1,0.1c0.1,0.1,0.2,0.1,0.3,0
				l0.4-0.4v1c0,0.2,0.1,0.3,0.3,0.3s0.3-0.1,0.3-0.3v-1l0.4,0.4c0.1,0.1,0.2,0.1,0.3,0l0.1-0.1C18.6,15.3,18.6,15.2,18.5,15.1z"/>
		</g>
		<path fill="#2E70B8" d="M19.9,12.3c0-0.5-0.4-0.9-0.9-0.9h-5.8c-0.5,0-0.9,0.4-0.9,0.9v4.5c0,0.5,0.4,0.9,0.9,0.9h5.8
			c0.5,0,0.9-0.4,0.9-0.9V12.3z M15.5,12h1.2v0.7c0,0.2-0.1,0.3-0.3,0.3h-0.6c-0.2,0-0.3-0.1-0.3-0.3V12z M19.2,16.8
			c0,0.2-0.1,0.3-0.3,0.3h-5.8c-0.2,0-0.3-0.1-0.3-0.3v-4.5c0-0.2,0.1-0.3,0.3-0.3h1.8v0.7c0,0.5,0.4,0.9,0.9,0.9h0.6
			c0.5,0,0.9-0.4,0.9-0.9V12h1.6c0.2,0,0.3,0.1,0.3,0.3V16.8z"/>
	</g>
	<g>
		<path fill="#2E70B8" d="M22.9,9.5H9.1c-0.5,0-0.9,0.4-0.9,0.9v8.3c0,0.5,0.4,0.9,0.9,0.9h5.6l-0.4,2.2h-1.6
			c-0.2,0-0.3,0.1-0.3,0.3c0,0.2,0.1,0.3,0.3,0.3h6.7c0.2,0,0.3-0.1,0.3-0.3c0-0.2-0.1-0.3-0.3-0.3h-1.6l-0.4-2.2h5.6
			c0.5,0,0.9-0.4,0.9-0.9v-8.3C23.8,9.9,23.4,9.5,22.9,9.5z M17.1,21.9h-2.2l0.4-2.2h1.4L17.1,21.9z M23.2,18.8
			c0,0.2-0.1,0.3-0.3,0.3H9.1c-0.2,0-0.3-0.1-0.3-0.3v-8.3c0-0.2,0.1-0.3,0.3-0.3h13.8c0.2,0,0.3,0.1,0.3,0.3V18.8z"/>
	</g>
</g>
</svg>
