<?xml version="1.0" encoding="UTF-8" standalone="no"?>
<!-- Created with Inkscape (http://www.inkscape.org/) -->

<svg
   xmlns:dc="http://purl.org/dc/elements/1.1/"
   xmlns:cc="http://creativecommons.org/ns#"
   xmlns:rdf="http://www.w3.org/1999/02/22-rdf-syntax-ns#"
   xmlns:svg="http://www.w3.org/2000/svg"
   xmlns="http://www.w3.org/2000/svg"
   xmlns:sodipodi="http://sodipodi.sourceforge.net/DTD/sodipodi-0.dtd"
   xmlns:inkscape="http://www.inkscape.org/namespaces/inkscape"
   width="16"
   height="16"
   id="svg7789"
   version="1.1"
   inkscape:version="0.91 r13725"
   viewBox="0 0 16 16"
   sodipodi:docname="alert.svg">
  <defs
     id="defs7791" />
  <sodipodi:namedview
     id="base"
     pagecolor="#998200"
     bordercolor="#666666"
     borderopacity="1.0"
     inkscape:pageopacity="0.0"
     inkscape:pageshadow="2"
     inkscape:zoom="22.197802"
     inkscape:cx="-3.0450119"
     inkscape:cy="4.7010239"
     inkscape:current-layer="layer1"
     showgrid="true"
     inkscape:grid-bbox="true"
     inkscape:document-units="px"
     inkscape:window-width="1920"
     inkscape:window-height="1056"
     inkscape:window-x="0"
     inkscape:window-y="24"
     inkscape:window-maximized="1" />
  <metadata
     id="metadata7794">
    <rdf:RDF>
      <cc:Work
         rdf:about="">
        <dc:format>image/svg+xml</dc:format>
        <dc:type
           rdf:resource="http://purl.org/dc/dcmitype/StillImage" />
        <dc:title></dc:title>
      </cc:Work>
    </rdf:RDF>
  </metadata>
  <g
     id="layer1"
     inkscape:label="Layer 1"
     inkscape:groupmode="layer">
    <path
       d="m 8.0001156,4.0502451 5.3096774,9.1961329 -10.6193541,0 5.3096767,-9.1961329 z m 0,-3.1072449 L 0,14.8 16.000232,14.8 8.0001156,0.9430002 Z m 0,11.6881688 c -0.3720054,0 -0.6728097,-0.301604 -0.6728097,-0.67361 0,-0.372005 0.3008043,-0.67281 0.6728097,-0.67281 0.3720053,0 0.6728098,0.300805 0.6728098,0.67281 0,0.372006 -0.3008045,0.67361 -0.6728098,0.67361 m -0.624009,-5.7352828 1.2472181,0 0,3.7832548 -1.2472181,0 0,-3.7832548 z"
       style="fill:#998200;fill-opacity:1;fill-rule:nonzero;stroke:none"
       id="path4282"
       inkscape:connector-curvature="0" />
  </g>
</svg>
