<?xml version="1.0" encoding="utf-8"?>
<!-- Generator: Adobe Illustrator 19.1.0, SVG Export Plug-In . SVG Version: 6.00 Build 0)  -->
<!DOCTYPE svg PUBLIC "-//W3C//DTD SVG 1.0//EN" "http://www.w3.org/TR/2001/REC-SVG-20010904/DTD/svg10.dtd">
<svg version="1.0" id="Layer_1" xmlns="http://www.w3.org/2000/svg" xmlns:xlink="http://www.w3.org/1999/xlink" x="0px" y="0px"
	 viewBox="0 0 32 32" enable-background="new 0 0 32 32" xml:space="preserve">
<path id="disk-14-icon_5_" fill="#FFFFFF" d="M20,19.3c0,0.1-0.1,0.2-0.3,0.2s-0.3-0.1-0.3-0.2c0-0.1,0.1-0.3,0.3-0.3
	S20,19.1,20,19.3z M22,18l-2.5-7h-7L10,18v3h12V18z M13.2,12h5.7l1.9,5.5h-9.4L13.2,12z M21,20H11v-1.5h10V20L21,20z M15.5,12.5V15
	H14l2,2l2-2h-1.5v-2.5H15.5L15.5,12.5z"/>
</svg>
