<?xml version="1.0" encoding="utf-8"?>
<!-- Generator: Adobe Illustrator 19.1.0, SVG Export Plug-In . SVG Version: 6.00 Build 0)  -->
<!DOCTYPE svg PUBLIC "-//W3C//DTD SVG 1.0//EN" "http://www.w3.org/TR/2001/REC-SVG-20010904/DTD/svg10.dtd">
<svg version="1.0" id="Layer_1" xmlns="http://www.w3.org/2000/svg" xmlns:xlink="http://www.w3.org/1999/xlink" x="0px" y="0px"
	 viewBox="0 0 32 32" enable-background="new 0 0 32 32" xml:space="preserve">
<path fill="#C3C2C1" d="M20.1,19.1l-1.9-1.9c0,0,0,0,0,0c0.4-0.6,0.6-1.2,0.6-1.9c0-2-1.6-3.5-3.5-3.5c-2,0-3.5,1.6-3.5,3.5
	s1.6,3.5,3.5,3.5c0.7,0,1.4-0.2,2-0.6c0,0,0,0,0,0l1.9,1.9c0.3,0.3,0.7,0.3,1,0S20.4,19.4,20.1,19.1z M15.2,17.5
	c-1.3,0-2.3-1-2.3-2.3s1-2.3,2.3-2.3c1.3,0,2.3,1,2.3,2.3C17.6,16.5,16.5,17.5,15.2,17.5z"/>
</svg>
